<?xml version="1.0" encoding="utf-8"?>
<!-- Generator: Adobe Illustrator 21.0.2, SVG Export Plug-In . SVG Version: 6.00 Build 0)  -->
<svg version="1.1" id="Layer_1" xmlns="http://www.w3.org/2000/svg" xmlns:xlink="http://www.w3.org/1999/xlink" x="0px" y="0px"
	 viewBox="0 0 500 500" style="enable-background:new 0 0 500 500;" xml:space="preserve">
<style type="text/css">
	.st0{fill:#FFFFFF;}
</style>
<path class="st0" d="M250,466.2c-73.6,0-133.2-59.6-133.2-133.2c0-23.6,5.9-46.2,17.7-66.6l29-49.9L250,66.6l86.5,149.8l29,49.9
	c11.8,20.4,17.7,43,17.7,66.6C383.2,406.6,323.6,466.2,250,466.2 M250,0c0,0-86.5,149.8-144.5,250.3c-14,24.7-22,53.1-22,83.2
	C83.5,425.4,158.2,500,250,500s166.5-74.6,166.5-166.5c0-30.1-8-58.5-22.5-83.2C336.5,149.8,250,0,250,0"/>
</svg>
