<?xml version="1.0" encoding="utf-8"?>
<!-- Generator: Adobe Illustrator 21.0.2, SVG Export Plug-In . SVG Version: 6.00 Build 0)  -->
<svg version="1.1" id="Layer_1" xmlns="http://www.w3.org/2000/svg" xmlns:xlink="http://www.w3.org/1999/xlink" x="0px" y="0px"
	 viewBox="0 0 500 500" style="enable-background:new 0 0 500 500;" xml:space="preserve">
<style type="text/css">
	.st0{fill:#EAEAEA;}
</style>
<path class="st0" d="M398.4,103C360.5,41.3,292.7,0,215.2,0C96.6,0,0.1,96.5,0.1,215.1c0,77.5,41.3,145.3,103,183.2
	C141.1,459.1,208.1,500,285,500c118.6,0,215.1-96.5,215.1-215.1C500.1,208,459.2,141,398.4,103z M17.8,215.1
	c0-108.8,88.5-197.4,197.4-197.4c108.9,0,197.4,88.5,197.4,197.4c0,108.8-88.5,197.4-197.4,197.4C106.4,412.5,17.8,323.9,17.8,215.1
	z M285,482.3c-58.7,0-111.2-26-147.4-66.8c24.1,9.3,50.2,14.7,77.5,14.7c118.6,0,215.1-96.5,215.1-215.1c0-27.4-5.3-53.5-14.7-77.6
	c40.8,36.2,66.8,88.7,66.8,147.4C482.4,393.7,393.8,482.3,285,482.3z"/>
</svg>
