<?xml version="1.0" encoding="utf-8"?>
<!-- Generator: Adobe Illustrator 21.0.2, SVG Export Plug-In . SVG Version: 6.00 Build 0)  -->
<!DOCTYPE svg PUBLIC "-//W3C//DTD SVG 1.1//EN" "http://www.w3.org/Graphics/SVG/1.1/DTD/svg11.dtd">
<svg version="1.1" id="Layer_1" xmlns="http://www.w3.org/2000/svg" xmlns:xlink="http://www.w3.org/1999/xlink" x="0px" y="0px"
	 viewBox="0 0 216 216" enable-background="new 0 0 216 216" xml:space="preserve">
<g>
	<path d="M108,20.5c0,0-30.3,52.5-50.5,87.5c-4.9,8.6-7.8,18.5-7.8,29.1c0,32.2,26.1,58.3,58.3,58.3s58.3-26.1,58.3-58.3
		c0-10.6-2.9-20.6-7.8-29.1C138.3,73,108,20.5,108,20.5 M108,183.8c-25.7,0-46.7-20.9-46.7-46.7c0-8.2,2.1-16.2,6.2-23.3l10.1-17.5
		L108,43.8l30.3,52.5l10.1,17.5c4.1,7.1,6.2,15.1,6.2,23.3C154.6,162.9,133.7,183.8,108,183.8"/>
</g>
</svg>
